C:\Users\Abhishek\workspace\TestMaven\src\test\java\abc.java
C:\Users\Abhishek\workspace\TestMaven\src\test\java\Sample.java
C:\Users\Abhishek\workspace\TestMaven\src\test\java\ITDemo.java
C:\Users\Abhishek\workspace\TestMaven\src\test\java\TestAbc.java
